 [
    {
      "name": "task-app",
      "image": "docker.io/misko566/task-app:latest",
      "cpu": 10,
      "memory": 512,
      "essential": true,
      "dnsSearchDomains": null,
        "environmentFiles": null,
        "logConfiguration": {
          "logDriver": "awslogs",
          "secretOptions": null,
          "options": {
            "awslogs-group": "/ecs/task-app",
            "awslogs-region": "eu-central-1",
            "awslogs-stream-prefix": "ecs"
          }
        },
      "portMappings": [
        {
          "containerPort": 80,
          "hostPort": 80
        }
      ]
    }
  ]
